<?xml version="1.0" encoding="utf-8"?>
<!-- Generator: Adobe Illustrator 17.0.0, SVG Export Plug-In . SVG Version: 6.00 Build 0)  -->
<!DOCTYPE svg PUBLIC "-//W3C//DTD SVG 1.1//EN" "http://www.w3.org/Graphics/SVG/1.1/DTD/svg11.dtd">
<svg version="1.1" id="Layer_1" xmlns="http://www.w3.org/2000/svg" xmlns:xlink="http://www.w3.org/1999/xlink" x="0px" y="0px"
	 width="76.902px" height="71.668px" viewBox="0 0 76.902 71.668" enable-background="new 0 0 76.902 71.668" xml:space="preserve">
<text transform="matrix(1 0 0 1 635.5972 -1056.4854)" fill="#596E78" font-family="'ClearSans'" font-size="31.0466">*Fantastic Items</text>
<g>
	<text transform="matrix(1 0 0 1 588.4034 -1025.6799)" fill="#596E78" font-family="'ClearSans'" font-size="21">Rather number can and set praise.</text>
</g>
<g>
	<path fill="#0E2D3B" d="M201.234,44.141V-28.72c0-0.646-0.191-1.175-0.648-1.632c-0.457-0.457-1.018-0.616-1.665-0.616h-52.253
		c-0.646,0-1.241,0.158-1.698,0.616c-0.457,0.457-0.682,0.986-0.682,1.632v20.825h-23.746c-0.646,0-1.187,0.224-1.644,0.681
		c-0.457,0.457-0.628,1.051-0.628,1.698v72.878c0,0.646,0.171,1.205,0.628,1.662c0.457,0.457,0.998,0.645,1.644,0.645h52.253
		c0.646,0,1.279-0.262,1.736-0.719c0.457-0.457,0.719-0.754,0.719-1.736h-0.034V46.596h23.705c0.646,0,1.279-0.262,1.736-0.719
		c0.457-0.457,0.719-1.245,0.719-1.736H201.234z"/>
	<polygon fill="#FFFFFF" points="170.307,46.596 170.307,64.759 123.18,64.759 123.18,-2.986 144.289,-2.986 146.743,-2.986 
		149.198,-2.986 170.307,-2.986 170.307,1.923 170.307,4.378 170.307,6.832 170.307,12.232 170.307,14.687 170.307,17.141 
		170.307,28.346 170.307,31.115 170.307,32.259 170.307,33.883 170.307,35.021 170.307,35.119 170.307,35.132 170.307,36.079 
		170.307,36.084 170.307,41.687 170.307,44.141 	"/>
	<polygon fill="#0E2D3B" points="173.293,24.505 173.371,24.151 173.42,24.171 	"/>
	<rect x="173.974" y="25.478" fill="#0E2D3B" width="0.26" height="0.009"/>
	<path fill="#0E2D3B" d="M170.577,36.041c0.118-0.033,0.227-0.085,0.323-0.158C170.812,35.956,170.704,36.008,170.577,36.041z"/>
	<path fill="#FFFFFF" d="M175.216,31.395c0,0.125,0.157,0.24,0.253,0.336c0.183,0.183,0.238,0.288,0.729,0.288v-0.149h3.598
		c0.258,0,0.43-0.03,0.613-0.213c0.183-0.183,0.207-0.361,0.207-0.62v-1.482c0-0.259-0.024-0.581-0.207-0.764
		c-0.183-0.183-0.355-0.357-0.613-0.357h-3.635c-0.259,0-0.528,0.175-0.711,0.357c-0.096,0.096-0.234,0.281-0.234,0.406v-4.318
		v-0.752v-6.984h12.399c1.356,0,2.455-1.099,2.455-2.455c0-1.356-1.099-2.455-2.455-2.455h-12.399v-5.4h12.399
		c1.356,0,2.455-1.099,2.455-2.455c0-1.356-1.099-2.455-2.455-2.455h-12.399v-5.4h12.399c1.356,0,2.455-1.099,2.455-2.455
		c0-1.356-1.099-2.455-2.455-2.455h-29.64c-0.393,0-0.759,0.491-1.088,0.491h-7.689v-18.164h47.127v67.745h-21.109V31.395z"/>
	<path fill="#0E2D3B" d="M187.615-18.204h-29.64c-1.356,0-2.455,1.099-2.455,2.455c0,1.356,1.099,2.455,2.455,2.455h29.64
		c1.356,0,2.455-1.099,2.455-2.455C190.069-17.105,188.971-18.204,187.615-18.204z"/>
	<path fill="#0E2D3B" d="M175.249,24.877l0.012-0.032c0.089-0.234,0.081-0.492-0.012-0.72V24.877z"/>
	<path fill="#0E2D3B" d="M161.489,4.868h-5.932h-6.359h-2.455h-2.455h-12.44c-1.356,0-2.455,1.099-2.455,2.455
		c0,1.356,1.099,2.455,2.455,2.455h12.44h2.455h2.455h12.291c1.356,0,2.455-1.164,2.455-2.52c0-0.124-0.019-0.426-0.036-0.426
		C163.731,5.85,162.721,4.868,161.489,4.868z"/>
	<path fill="#0E2D3B" d="M161.489,15.177h-5.932h-6.359h-2.455h-2.455h-12.44c-1.356,0-2.455,1.099-2.455,2.455
		c0,1.356,1.099,2.455,2.455,2.455h12.44h2.455h2.455h12.291c1.356,0,2.455-1.164,2.455-2.519c0-0.124-0.019-0.426-0.036-0.426
		C163.731,15.668,162.721,15.177,161.489,15.177z"/>
	<path fill="#0E2D3B" d="M161.489,24.996h-12.291h-2.455h-2.455h-12.44c-1.356,0-2.455,1.099-2.455,2.455
		c0,1.356,1.099,2.455,2.455,2.455h12.44h2.455h2.455h12.291c1.356,0,2.455-1.099,2.455-2.455
		C163.943,26.095,162.844,24.996,161.489,24.996z"/>
	<path fill="#0E2D3B" d="M161.489,35.305h-12.291h-2.455h-2.455h-12.44c-1.356,0-2.455,1.099-2.455,2.455
		c0,1.356,1.099,2.455,2.455,2.455h12.44h2.455h2.455h12.291c1.356,0,2.455-1.099,2.455-2.455
		C163.943,36.404,162.844,35.305,161.489,35.305z"/>
	<path fill="#0E2D3B" d="M148.217,46.596h-1.493c-0.409,0-0.773,0.312-0.918,0.695l-4.025,10.641
		c-0.114,0.301-0.073,0.69,0.11,0.955c0.183,0.265,0.486,0.473,0.808,0.473h1.482c0.409,0,0.772-0.25,0.918-0.633l-0.918-0.349
		l-0.918-0.444l3.903-10.356l-3.85,10.323l0.971,0.41l0.005-0.015l0.805,0.333l4.036-10.596c0.114-0.301,0.073-0.695-0.109-0.96
		S148.539,46.596,148.217,46.596z M148.178,47.682l0.038,0.017v0.004l-0.325,0.855h-0.046L148.178,47.682z"/>
	<path fill="#0E2D3B" d="M153.67,51.996h-3.635c-0.259,0-0.439-0.006-0.622,0.177c-0.183,0.183-0.215,0.325-0.215,0.584v1.482
		c0,0.259,0.105,0.511,0.288,0.694c0.183,0.183,0.203,0.288,0.694,0.288v0.211h3.49c0.259,0,0.484-0.21,0.667-0.393
		s0.261-0.541,0.261-0.8v-1.482c0-0.259-0.078-0.401-0.261-0.584C154.154,51.99,153.928,51.996,153.67,51.996z"/>
</g>
<g>
	<g>
		<rect x="246.085" y="-5.953" fill="#FFFFFF" width="53.84" height="75.092"/>
		<path fill="#0E2D3B" d="M299.925,69.139V66.61h-51.311V-3.424h48.782l0,72.563H299.925V66.61V69.139h2.529V-5.953
			c0-0.666-0.27-1.318-0.741-1.788c-0.471-0.471-1.122-0.741-1.788-0.741h-53.84c-0.666,0-1.317,0.27-1.788,0.741
			c-0.471,0.471-0.741,1.122-0.741,1.788v75.092c0,0.666,0.27,1.317,0.741,1.788c0.471,0.471,1.122,0.741,1.788,0.741h53.84
			c0.666,0,1.317-0.27,1.788-0.741c0.471-0.471,0.741-1.122,0.741-1.788H299.925z"/>
		<line fill="#FFFFFF" x1="257.735" y1="7.179" x2="288.276" y2="7.179"/>
		<path fill="#0E2D3B" d="M257.735,9.708h30.541c1.397,0,2.529-1.132,2.529-2.529c0-1.397-1.132-2.529-2.529-2.529h-30.541
			c-1.397,0-2.529,1.132-2.529,2.529C255.206,8.576,256.338,9.708,257.735,9.708"/>
		<line fill="#FFFFFF" x1="257.735" y1="17.683" x2="288.276" y2="17.683"/>
		<path fill="#0E2D3B" d="M257.735,20.212h30.541c1.397,0,2.529-1.132,2.529-2.529c0-1.397-1.132-2.529-2.529-2.529h-30.541
			c-1.397,0-2.529,1.132-2.529,2.529C255.206,19.079,256.338,20.212,257.735,20.212"/>
		<line fill="#FFFFFF" x1="257.735" y1="28.186" x2="288.276" y2="28.186"/>
		<path fill="#0E2D3B" d="M257.735,30.715h30.541c1.397,0,2.529-1.132,2.529-2.529c0-1.397-1.132-2.529-2.529-2.529h-30.541
			c-1.397,0-2.529,1.132-2.529,2.529C255.206,29.583,256.338,30.715,257.735,30.715"/>
		<line fill="#FFFFFF" x1="257.735" y1="38.69" x2="288.276" y2="38.69"/>
		<path fill="#0E2D3B" d="M257.735,41.219h30.541c1.397,0,2.529-1.132,2.529-2.529c0-1.397-1.132-2.529-2.529-2.529h-30.541
			c-1.397,0-2.529,1.132-2.529,2.529C255.206,40.087,256.338,41.219,257.735,41.219"/>
		<polygon fill="#0E2D3B" points="270.443,59.814 268.916,59.814 273.063,48.88 274.601,48.88 		"/>
		<path fill="#0E2D3B" d="M270.443,59.814v-1.012h-0.061l3.379-8.91h0.84V48.88l-0.946-0.36l-4.159,10.933L270.443,59.814v-1.012
			V59.814l0.946,0.36l4.159-10.933c0.118-0.31,0.075-0.661-0.113-0.934s-0.501-0.437-0.833-0.437h-1.539
			c-0.422,0-0.796,0.259-0.946,0.653l-4.147,10.933c-0.118,0.31-0.075,0.661,0.113,0.933c0.188,0.273,0.501,0.437,0.833,0.437h1.527
			c0.421,0,0.796-0.258,0.946-0.652L270.443,59.814z"/>
		<rect x="276.474" y="54.091" fill="#0E2D3B" width="3.745" height="1.527"/>
		<path fill="#0E2D3B" d="M276.474,55.619h1.012v-0.516h1.722v0.516h1.012v-1.012h-3.745V55.619h1.012H276.474v1.012h3.745
			c0.266,0,0.527-0.108,0.715-0.296c0.188-0.188,0.296-0.449,0.296-0.715v-1.527c0-0.266-0.108-0.527-0.296-0.715
			c-0.188-0.188-0.449-0.296-0.715-0.296h-3.745c-0.266,0-0.527,0.108-0.715,0.296c-0.188,0.188-0.296,0.449-0.296,0.715v1.527
			c0,0.266,0.108,0.527,0.296,0.715c0.188,0.188,0.449,0.296,0.715,0.296V55.619z"/>
	</g>
	<g>
		<path fill="#0E2D3B" d="M327.689-14.156c-0.455-1.014-1.195-1.407-2.243-2.407h0.228c0,0,0-0.318,0-0.362v0.041
			c-1-0.09-1.741-0.559-3.222-1.473c-1.482-0.914-3.367-2.242-4.651-4.006c-1.682-2.305-4.194-4.256-6.758-6.327
			c-2.851-2.298-5.796-4.655-7.706-7.426c-1.207-1.75-2.081-3.406-2.847-4.891c-0.703-1.362-1.372-2.659-2.223-3.659
			c-0.426-0.499-0.91-0.923-1.472-1.224c-0.561-0.301-1.205-0.471-1.917-0.47c-0.887-0.001-1.761,0.283-2.625,0.819
			c-1.846,1.142-3.027,3.121-3.339,5.504c-0.059,0.443-0.088,0.893-0.088,1.349c0.003,3.413,1.612,7.072,4.427,10.09
			c1.568,1.675,2.047,3.04,2.041,3.793c0,0.212-0.036,0.373-0.082,0.481c-0.059,0.138-0.157,0.274-0.311,0.407
			c-0.229,0.199-0.584,0.691-1.047,0.822c-0.462,0.132-1.03,0.532-1.673,0.532h-0.019h-1.886h0.032
			c-2.205,0-4.369-0.265-6.309,0.057c-1.935,0.322-3.671,0.809-4.936,2.122c-1.09,1.131-1.641,2.541-1.637,4.241
			c0,0.09,0.001,0.143,0.005,0.235c0.037,1.073,0.207,2.016,0.519,2.86c0.273,0.739,0.812,1.371,1.305,1.91
			c-0.35,0.616-0.579,1.267-0.579,1.961v0.001c0,0.366-0.248,0.736-0.248,1.107c0,1.67,0.608,3.349,1.882,4.995
			c-0.495,0.919-0.706,1.888-0.705,2.876c0,0.134,0.072,0.269,0.072,0.404v0.002c0,0.954,0.282,1.867,0.805,2.71
			c0.495,0.798,1.14,1.533,2.003,2.211c0.054,1.37,0.37,3.307,1.676,5.087l-0.011,0.346c1.428,1.941,3.601,2.874,6.37,3.874h-0.001
			c1.102,0,2.352-0.103,3.72-0.103c3.37,0,6.975-0.051,10.37-0.551c2.685-0.395,5.21-0.346,7.148-0.346h0.468
			c2.65,0,4.739-0.576,6.444-1.15c0.85-0.288,1.75-1.032,2.371-1.7c0.622-0.668,0.637-1.81,1.637-2.929v-0.01
			c0-0.205,0.07-0.572,0.257-1.006c0.187-0.435,0.34-0.949,0.575-1.479c0.992-2.237,2.174-4.99,3.15-7.794
			c0.974-2.806,1.692-5.634,1.694-8.128C328.35-12.006,328.146-13.141,327.689-14.156z"/>
		<path fill="#FFFFFF" d="M294.44,9.493c-1.207,0-2.276-0.072-3.268-0.217c-2.303-0.338-3.689-1.438-4.119-3.273l-0.032-0.139h2.483
			c1.107,0,2.007-0.901,2.007-2.009c0-1.106-0.9-2.007-2.007-2.007h-3.91l-0.029-0.02c-0.961-0.676-1.518-1.362-1.567-1.933
			c-0.027-0.314,0.087-0.667,0.338-1.046l8.835-0.051c1.108,0,2.009-0.901,2.009-2.009c0-1.107-0.902-2.007-2.009-2.007h-8.844
			l-0.034-0.038c-1.102-1.216-1.609-2.287-1.469-3.096c0.151-0.867,1.072-1.516,1.458-1.754l10.911-0.018
			c1.107,0,2.007-0.9,2.007-2.007c0-1.109-0.9-2.009-2.007-2.009l-10.784,0.004c-0.288-0.04-0.388-0.049-0.476-0.049
			c-0.223,0-0.45,0.043-0.633,0.112c-0.12,0.034-0.245,0.051-0.373,0.051c-0.389,0-0.913-0.215-0.977-2.072
			c-0.02-0.609,0.095-1.015,0.371-1.304c1.057-1.098,4.265-1.21,8.042-1.237c0.638-0.004,1.277-0.009,1.908-0.02
			c3.498-0.072,6.087-1.496,7.106-3.907c1.127-2.668,0.1-5.99-2.82-9.119c-2.71-2.903-3.41-5.911-3.161-7.762
			c0.076-0.6,0.339-1.696,1.236-2.256l0.138-0.085l0.08,0.069c0.417,0.479,1.062,1.727,1.611,2.787
			c0.782,1.516,1.756,3.407,3.121,5.38c2.306,3.344,5.621,6.019,8.564,8.391c2.342,1.891,4.554,3.676,5.856,5.466
			c3.199,4.39,8.289,6.595,9.193,6.951l0.114,0.06c0.568,0.484,0.836,2.267-0.118,5.824c-0.946,3.541-2.72,7.542-3.894,10.19
			c-0.588,1.322-0.989,2.231-1.197,2.843c-0.484,1.429-0.678,1.561-5.879,1.561h-0.468c-2.308,0-4.972,0.394-7.824,0.815
			C300.774,9.016,297.513,9.493,294.44,9.493z"/>
	</g>
</g>
<g>
	<path fill="#0E2D3B" d="M72.248,10.499H54.054V4.81c0-2.653-2.159-4.81-4.813-4.81h-21.58c-2.653,0-4.81,2.156-4.81,4.81v5.689
		H4.657C2.089,10.499,0,12.587,0,15.153v12.958v3.301v35.603c0,2.565,2.089,4.654,4.657,4.654h67.591
		c2.565,0,4.654-2.089,4.654-4.654V31.411v-7.525v-8.734C76.902,12.587,74.813,10.499,72.248,10.499z"/>
	<polygon fill="#FFFFFF" points="27.661,4.818 49.235,4.81 49.235,10.499 27.667,10.499 	"/>
	<path fill="#FFFFFF" d="M4.818,67.015L4.732,39.266C6,39.954,7.43,40.381,8.972,40.381h17.738v7.392h23.481v-7.392h17.741
		c1.505,0,2.903-0.408,4.151-1.066V66.85L4.818,67.015z"/>
	<rect x="31.529" y="33.338" fill="#FFFFFF" width="13.844" height="9.616"/>
	<path fill="#FFFFFF" d="M72.083,31.411c0,2.289-1.862,4.151-4.151,4.151H50.191V28.52H26.711v7.042H8.972
		c-2.289,0-4.154-1.862-4.154-4.151v-3.301H4.697l-0.04-12.793l67.426-0.165v8.734V31.411z"/>
</g>
</svg>
