<?xml version="1.0" encoding="utf-8"?>
<!-- Generator: Adobe Illustrator 19.2.0, SVG Export Plug-In . SVG Version: 6.00 Build 0)  -->
<svg version="1.1" id="Layer_1" xmlns="http://www.w3.org/2000/svg" xmlns:xlink="http://www.w3.org/1999/xlink" x="0px" y="0px"
	 viewBox="0 0 21 23.2" style="enable-background:new 0 0 21 23.2;" xml:space="preserve">
<style type="text/css">
	.st0{opacity:0.7;}
	.st1{fill:#566B75;}
	.st2{fill:#FFFFFF;}
</style>
<g class="st0">
	<path class="st1" d="M18.6,5.3l-6.7-3.8c-0.9-0.5-2-0.5-2.8,0L2.4,5.3C1.5,5.8,1,6.7,1,7.7v7.7c0,1,0.5,1.9,1.4,2.5l6.7,3.8
		c0.9,0.5,2,0.5,2.8,0l6.7-3.8c0.9-0.5,1.4-1.4,1.4-2.5V7.7C20,6.7,19.5,5.8,18.6,5.3z"/>
	<g>
		<path class="st2" d="M13.5,11.4c0.9-0.4,1.4-1.3,1.4-2.3c0-1.4-1-3-3.6-3H6.9c-0.1,0-0.2,0.1-0.2,0.2v10.6c0,0.1,0.1,0.2,0.2,0.2
			h4.3c2.5,0,4-1.1,4-2.9C15.3,12.9,14.6,11.9,13.5,11.4z M11.3,15.9H7.9V7.1h3.4c1.3,0,2.6,0.6,2.6,2c0,1.4-1.3,1.8-2.4,1.8h-0.9
			c-0.2,0-0.2,0.2-0.1,0.3l0,0c0,0,0.7,0.3,2.5,1h0c0.7,0.3,1.3,0.9,1.3,1.9C14.2,15.6,12.6,15.9,11.3,15.9z"/>
	</g>
</g>
</svg>
