<?xml version="1.0" encoding="utf-8"?>
<!-- Generator: Adobe Illustrator 17.0.0, SVG Export Plug-In . SVG Version: 6.00 Build 0)  -->
<!DOCTYPE svg PUBLIC "-//W3C//DTD SVG 1.1//EN" "http://www.w3.org/Graphics/SVG/1.1/DTD/svg11.dtd">
<svg version="1.1" id="Layer_1" xmlns="http://www.w3.org/2000/svg" xmlns:xlink="http://www.w3.org/1999/xlink" x="0px" y="0px"
	 width="21px" height="23.165px" viewBox="0 0 21 23.165" enable-background="new 0 0 21 23.165" xml:space="preserve">
<g opacity="0.7">
	<path fill="#FFFFFF" d="M18.574,5.285l-6.658-3.844c-0.876-0.506-1.956-0.506-2.833,0L2.426,5.285
		C1.549,5.791,1.009,6.727,1.009,7.739v7.688c0,1.012,0.54,1.947,1.416,2.453l6.658,3.844c0.876,0.506,1.956,0.506,2.833,0
		l6.658-3.844c0.876-0.506,1.416-1.441,1.416-2.453V7.739C19.991,6.727,19.451,5.791,18.574,5.285z"/>
	<g>
		<path fill="#0E2D3B" d="M13.467,11.398c0.895-0.429,1.435-1.263,1.435-2.258c0-1.403-0.951-3.041-3.631-3.041H6.93
			c-0.084,0-0.153,0.068-0.153,0.153v10.586c0,0.084,0.068,0.153,0.153,0.153h4.34c2.538,0,3.994-1.064,3.994-2.92
			C15.265,12.868,14.572,11.858,13.467,11.398z M11.271,15.899H7.9V7.1h3.371c1.272,0,2.554,0.631,2.554,2.04
			c0,1.449-1.332,1.753-2.448,1.753H10.43c-0.178,0-0.241,0.237-0.086,0.325l0.039,0.022c0,0,0.698,0.279,2.461,0.961l-0.005,0
			c0.702,0.288,1.309,0.866,1.318,1.854C14.158,15.579,12.588,15.899,11.271,15.899z"/>
	</g>
</g>
</svg>
