<?xml version="1.0" encoding="utf-8"?>
<!-- Generator: Adobe Illustrator 17.0.0, SVG Export Plug-In . SVG Version: 6.00 Build 0)  -->
<!DOCTYPE svg PUBLIC "-//W3C//DTD SVG 1.1//EN" "http://www.w3.org/Graphics/SVG/1.1/DTD/svg11.dtd">
<svg version="1.1" id="Layer_1" xmlns="http://www.w3.org/2000/svg" xmlns:xlink="http://www.w3.org/1999/xlink" x="0px" y="0px"
	 width="136.013px" height="152.5px" viewBox="0 0 136.013 152.5" enable-background="new 0 0 136.013 152.5" xml:space="preserve">
<g>
	<g>
		<path fill="#FFFFFF" stroke="#5FBDC7" stroke-width="0.8842" stroke-miterlimit="10" d="M11.042,32.106L58.014,4.987
			c6.183-3.57,13.802-3.57,19.985,0l46.972,27.119c6.183,3.57,9.992,10.168,9.992,17.307v54.238c0,7.14-3.809,13.738-9.992,17.307
			l-46.972,27.119c-6.183,3.57-13.802,3.57-19.985,0l-46.972-27.119c-6.183-3.57-9.992-10.168-9.992-17.307V49.413
			C1.05,42.273,4.859,35.676,11.042,32.106z"/>
	</g>
</g>
</svg>
