<?xml version="1.0" encoding="utf-8"?>
<!-- Generator: Adobe Illustrator 17.0.0, SVG Export Plug-In . SVG Version: 6.00 Build 0)  -->
<!DOCTYPE svg PUBLIC "-//W3C//DTD SVG 1.1//EN" "http://www.w3.org/Graphics/SVG/1.1/DTD/svg11.dtd">
<svg version="1.1" id="Layer_1" xmlns="http://www.w3.org/2000/svg" xmlns:xlink="http://www.w3.org/1999/xlink" x="0px" y="0px"
	 width="75.333px" height="83.333px" viewBox="0 0 75.333 83.333" enable-background="new 0 0 75.333 83.333" xml:space="preserve">
<g>
	<path fill="#0E2D3B" d="M36.782,80.49c-2.048,0-4.067-0.541-5.841-1.565L7.011,65.109c-3.6-2.08-5.837-5.955-5.837-10.111V27.365
		c0-4.157,2.237-8.031,5.837-10.113L30.941,3.438c3.543-2.052,8.13-2.052,11.68,0l23.925,13.814
		c3.606,2.082,5.839,5.956,5.839,10.113v27.632c0,4.156-2.234,8.032-5.837,10.111L42.62,78.924
		C40.847,79.948,38.825,80.49,36.782,80.49 M36.782,4.867c-1.524,0-3.027,0.403-4.343,1.161L8.507,19.845
		c-2.677,1.546-4.338,4.429-4.338,7.52v27.632c0,3.089,1.661,5.973,4.341,7.52l23.929,13.816c2.634,1.522,6.046,1.522,8.684,0
		L65.05,62.518c2.679-1.547,4.343-4.431,4.343-7.52V27.365c0-3.09-1.664-5.974-4.343-7.52L41.123,6.029
		C39.804,5.27,38.303,4.867,36.782,4.867"/>
	<g>
		<g>
			<rect x="22.128" y="30.243" fill="#FFFFFF" width="22.906" height="31.948"/>
			<path fill="#0E2D3B" d="M45.034,62.191v-1.076h-21.83V31.319h20.754l0,30.872H45.034v-1.076V62.191h1.076V30.243
				c0-0.283-0.115-0.561-0.315-0.761c-0.2-0.2-0.478-0.315-0.761-0.315H22.128c-0.283,0-0.56,0.115-0.761,0.315
				c-0.2,0.2-0.315,0.477-0.315,0.761v31.948c0,0.283,0.115,0.56,0.315,0.761c0.2,0.2,0.478,0.315,0.761,0.315h22.906
				c0.283,0,0.56-0.115,0.761-0.315c0.2-0.2,0.315-0.477,0.315-0.761H45.034z"/>
			<line fill="#FFFFFF" x1="27.084" y1="35.83" x2="40.078" y2="35.83"/>
			<path fill="#0E2D3B" d="M27.084,36.906h12.994c0.594,0,1.076-0.482,1.076-1.076c0-0.594-0.482-1.076-1.076-1.076H27.084
				c-0.594,0-1.076,0.482-1.076,1.076C26.008,36.424,26.49,36.906,27.084,36.906"/>
			<line fill="#FFFFFF" x1="27.084" y1="40.298" x2="40.078" y2="40.298"/>
			<path fill="#0E2D3B" d="M27.084,41.374h12.994c0.594,0,1.076-0.482,1.076-1.076c0-0.594-0.482-1.076-1.076-1.076H27.084
				c-0.594,0-1.076,0.482-1.076,1.076C26.008,40.893,26.49,41.374,27.084,41.374"/>
			<line fill="#FFFFFF" x1="27.084" y1="44.767" x2="40.078" y2="44.767"/>
			<path fill="#0E2D3B" d="M27.084,45.843h12.994c0.594,0,1.076-0.482,1.076-1.076c0-0.594-0.482-1.076-1.076-1.076H27.084
				c-0.594,0-1.076,0.482-1.076,1.076C26.008,45.361,26.49,45.843,27.084,45.843"/>
			<line fill="#FFFFFF" x1="27.084" y1="49.236" x2="40.078" y2="49.236"/>
			<path fill="#0E2D3B" d="M27.084,50.312h12.994c0.594,0,1.076-0.482,1.076-1.076c0-0.594-0.482-1.076-1.076-1.076H27.084
				c-0.594,0-1.076,0.482-1.076,1.076C26.008,49.83,26.49,50.312,27.084,50.312"/>
			<polygon fill="#0E2D3B" points="32.491,58.223 31.841,58.223 33.606,53.571 34.26,53.571 			"/>
			<path fill="#0E2D3B" d="M32.491,58.223v-0.43h-0.026l1.438-3.791h0.357v-0.43l-0.402-0.153l-1.769,4.652L32.491,58.223v-0.43
				V58.223l0.402,0.153l1.769-4.652c0.05-0.132,0.032-0.281-0.048-0.397c-0.08-0.116-0.213-0.186-0.354-0.186h-0.655
				c-0.179,0-0.339,0.11-0.402,0.278l-1.764,4.652c-0.05,0.132-0.032,0.281,0.048,0.397c0.08,0.116,0.213,0.186,0.354,0.186h0.649
				c0.179,0,0.339-0.11,0.402-0.277L32.491,58.223z"/>
			<rect x="35.057" y="55.788" fill="#0E2D3B" width="1.593" height="0.65"/>
			<path fill="#0E2D3B" d="M35.057,56.438h0.43v-0.22h0.733v0.22h0.43v-0.43h-1.593V56.438h0.43H35.057v0.43h1.593
				c0.113,0,0.224-0.046,0.304-0.126c0.08-0.08,0.126-0.191,0.126-0.304v-0.65c0-0.113-0.046-0.224-0.126-0.304
				c-0.08-0.08-0.191-0.126-0.304-0.126h-1.593c-0.113,0-0.224,0.046-0.304,0.126c-0.08,0.08-0.126,0.191-0.126,0.304v0.65
				c0,0.113,0.046,0.224,0.126,0.304c0.08,0.08,0.191,0.126,0.304,0.126V56.438z"/>
		</g>
		<g>
			<path fill="#0E2D3B" d="M56.846,26.389C56.653,25.957,56.338,26,55.892,25H57c0,0,0,0.593,0,0.575v0.018
				c-1-0.038-1.246-0.238-1.876-0.627c-0.631-0.389-1.685-0.954-2.231-1.705c-0.715-0.981-1.911-1.811-3.002-2.692
				c-1.213-0.978-2.529-1.98-3.342-3.159c-0.514-0.744-0.917-1.449-1.243-2.081c-0.299-0.58-0.599-1.131-0.962-1.557
				c-0.181-0.212-0.395-0.393-0.634-0.521c-0.239-0.128-0.517-0.2-0.819-0.2c-0.378,0-0.751,0.12-1.119,0.349
				c-0.785,0.486-1.289,1.328-1.422,2.342c-0.025,0.189-0.038,0.38-0.038,0.574c0.001,1.452,0.686,3.009,1.883,4.293
				c0.667,0.713,0.871,1.293,0.868,1.614c0,0.09-0.015,0.159-0.035,0.205c-0.025,0.059-0.067,0.116-0.132,0.173
				c-0.097,0.085-0.248,0.206-0.445,0.262C42.255,22.918,42.014,23,41.74,23h-0.008h-0.803h0.014c-0.938,0-1.859-0.025-2.684,0.112
				c-0.823,0.137-1.562,0.388-2.1,0.947c-0.464,0.481-0.698,1.103-0.697,1.826c0,0.038,0.001,0.072,0.002,0.111
				c0.016,0.456,0.088,0.863,0.221,1.222c0.116,0.314,0.358,0.586,0.568,0.815c-0.149,0.262-0.234,0.539-0.234,0.835v0.002
				c0,0.156-0.118,0.314-0.118,0.472c0,0.71,0.253,1.425,0.795,2.126c-0.21,0.391-0.504,0.804-0.503,1.224
				c0,0.057-0.173,0.114-0.173,0.172v0.001c0,0.406,0.32,0.794,0.543,1.153c0.21,0.34,0.585,0.652,0.953,0.941
				c0.023,0.583,0.208,1.407,0.763,2.164l0.02-0.311c0.608,0.826,1.548,1.19,2.726,1.19h0.004c0.469,0,1.003,0.415,1.585,0.415
				c1.434,0,2.969-0.038,4.413-0.251C48.167,37.996,49.243,38,50.067,38h0.199c1.128,0,2.016,0.001,2.741-0.243
				c0.362-0.123,0.888-0.316,1.152-0.6c0.265-0.284,0.84-0.647,0.84-1.123v-0.004c0-0.087-0.114-0.243-0.034-0.428
				c0.08-0.185,0.073-0.404,0.173-0.629c0.422-0.952,0.889-2.123,1.304-3.316c0.414-1.194,0.702-2.579,0.703-3.64
				C57.146,27.485,57.041,26.82,56.846,26.389z"/>
			<path fill="#FFFFFF" d="M42.7,36.814c-0.514,0-0.968-0.03-1.39-0.092c-0.98-0.144-1.57-0.612-1.753-1.392l-0.014-0.059H40.6
				c0.471,0,0.854-0.383,0.854-0.855c0-0.471-0.383-0.854-0.854-0.854h-1.663l-0.012-0.009c-0.409-0.288-0.646-0.579-0.667-0.822
				c-0.011-0.133,0.037-0.284,0.144-0.445l3.759-0.022c0.471,0,0.855-0.383,0.855-0.855c0-0.471-0.384-0.854-0.855-0.854h-3.762
				l-0.014-0.016c-0.469-0.517-0.685-0.973-0.625-1.317c0.064-0.369,0.456-0.645,0.62-0.746l4.642-0.008
				c0.471,0,0.854-0.383,0.854-0.854c0-0.472-0.383-0.855-0.854-0.855l-4.588,0.002c-0.122-0.017-0.165-0.021-0.203-0.021
				c-0.095,0-0.192,0.018-0.269,0.048c-0.051,0.014-0.104,0.022-0.159,0.022c-0.165,0-0.388-0.091-0.416-0.882
				c-0.009-0.259,0.041-0.432,0.158-0.555c0.45-0.467,1.815-0.515,3.421-0.526c0.272-0.002,0.543-0.004,0.812-0.009
				c1.488-0.03,2.59-0.637,3.023-1.662c0.479-1.135,0.042-2.548-1.2-3.88c-1.153-1.235-1.451-2.515-1.345-3.302
				c0.032-0.255,0.144-0.721,0.526-0.96l0.059-0.036l0.034,0.03c0.177,0.204,0.452,0.735,0.685,1.186
				c0.333,0.645,0.747,1.45,1.328,2.289c0.981,1.423,2.392,2.561,3.643,3.57c0.996,0.804,1.937,1.564,2.492,2.325
				c1.361,1.868,3.527,2.806,3.911,2.957l0.049,0.026c0.242,0.206,0.355,0.964-0.05,2.478c-0.403,1.507-1.157,3.209-1.657,4.335
				c-0.25,0.562-0.421,0.949-0.509,1.209c-0.206,0.608-0.288,0.664-2.501,0.664h-0.199c-0.982,0-2.115,0.168-3.329,0.347
				C45.395,36.611,44.008,36.814,42.7,36.814z"/>
		</g>
	</g>
</g>
</svg>
