<?xml version="1.0" encoding="utf-8"?>
<!-- Generator: Adobe Illustrator 17.0.0, SVG Export Plug-In . SVG Version: 6.00 Build 0)  -->
<!DOCTYPE svg PUBLIC "-//W3C//DTD SVG 1.1//EN" "http://www.w3.org/Graphics/SVG/1.1/DTD/svg11.dtd">
<svg version="1.1" id="Layer_1" xmlns="http://www.w3.org/2000/svg" xmlns:xlink="http://www.w3.org/1999/xlink" x="0px" y="0px"
	 width="75.333px" height="83.333px" viewBox="0 0 75.333 83.333" enable-background="new 0 0 75.333 83.333" xml:space="preserve">
<g>
	<path fill="#0E2D3B" d="M37.206,80.49c-2.048,0-4.067-0.541-5.841-1.565L7.436,65.109c-3.6-2.08-5.837-5.955-5.837-10.111V27.365
		c0-4.157,2.237-8.031,5.837-10.113L31.365,3.438c3.543-2.052,8.13-2.052,11.68,0L66.97,17.252
		c3.606,2.082,5.839,5.956,5.839,10.113v27.632c0,4.156-2.234,8.032-5.837,10.111L43.045,78.924
		C41.271,79.948,39.249,80.49,37.206,80.49 M37.206,4.867c-1.524,0-3.027,0.403-4.343,1.161L8.931,19.845
		c-2.677,1.546-4.338,4.429-4.338,7.52v27.632c0,3.089,1.661,5.973,4.341,7.52l23.929,13.816c2.634,1.522,6.046,1.522,8.684,0
		l23.927-13.816c2.679-1.547,4.343-4.431,4.343-7.52V27.365c0-3.09-1.664-5.974-4.343-7.52L41.547,6.029
		C40.228,5.27,38.728,4.867,37.206,4.867"/>
	<g>
		<path fill="#0E2D3B" d="M55.532,52.188V18.055c0-0.303-0.089-0.551-0.304-0.765c-0.214-0.214-0.477-0.288-0.78-0.288H29.97
			c-0.303,0-0.581,0.074-0.796,0.288c-0.214,0.214-0.319,0.462-0.319,0.765v9.756H17.731c-0.303,0-0.556,0.105-0.77,0.319
			c-0.214,0.214-0.294,0.492-0.294,0.795v34.14c0,0.303,0.08,0.564,0.294,0.779c0.214,0.214,0.467,0.302,0.77,0.302h24.478
			c0.303,0,0.599-0.123,0.813-0.337c0.214-0.214,0.337-0.353,0.337-0.813h-0.016v-9.659h11.105c0.303,0,0.599-0.123,0.813-0.337
			c0.214-0.214,0.337-0.583,0.337-0.813H55.532z"/>
		<polygon fill="#FFFFFF" points="41.044,53.338 41.044,61.846 18.966,61.846 18.966,30.11 28.855,30.11 30.005,30.11 31.155,30.11 
			41.044,30.11 41.044,32.41 41.044,33.56 41.044,34.71 41.044,37.24 41.044,38.389 41.044,39.539 41.044,44.788 41.044,46.085 
			41.044,46.622 41.044,47.382 41.044,47.915 41.044,47.961 41.044,47.967 41.044,48.411 41.044,48.413 41.044,51.038 
			41.044,52.188 		"/>
		<polygon fill="#0E2D3B" points="42.443,42.989 42.479,42.823 42.502,42.832 		"/>
		<rect x="42.761" y="43.445" fill="#0E2D3B" width="0.122" height="0.004"/>
		<path fill="#0E2D3B" d="M41.17,48.393c0.055-0.016,0.106-0.04,0.151-0.074C41.28,48.353,41.23,48.378,41.17,48.393z"/>
		<path fill="#FFFFFF" d="M43.343,46.216c0,0.058,0.074,0.112,0.118,0.157c0.086,0.086,0.112,0.135,0.342,0.135v-0.07h1.686
			c0.121,0,0.202-0.014,0.287-0.1c0.086-0.086,0.097-0.169,0.097-0.29v-0.694c0-0.121-0.011-0.272-0.097-0.358
			c-0.086-0.086-0.166-0.167-0.287-0.167h-1.703c-0.121,0-0.247,0.082-0.333,0.167c-0.045,0.045-0.11,0.132-0.11,0.19v-2.023v-0.352
			v-3.272h5.808c0.635,0,1.15-0.515,1.15-1.15c0-0.635-0.515-1.15-1.15-1.15h-5.808v-2.53h5.808c0.635,0,1.15-0.515,1.15-1.15
			c0-0.635-0.515-1.15-1.15-1.15h-5.808v-2.53h5.808c0.635,0,1.15-0.515,1.15-1.15c0-0.635-0.515-1.15-1.15-1.15H35.266
			c-0.184,0-0.356,0.23-0.51,0.23h-3.602v-8.509h22.077v31.736h-9.889V46.216z"/>
		<path fill="#0E2D3B" d="M49.152,22.981H35.266c-0.635,0-1.15,0.515-1.15,1.15c0,0.635,0.515,1.15,1.15,1.15h13.885
			c0.635,0,1.15-0.515,1.15-1.15C50.302,23.496,49.787,22.981,49.152,22.981z"/>
		<path fill="#0E2D3B" d="M43.359,43.163l0.006-0.015c0.042-0.11,0.038-0.23-0.006-0.337V43.163z"/>
		<path fill="#0E2D3B" d="M36.913,33.79h-2.779h-2.979h-1.15h-1.15h-5.828c-0.635,0-1.15,0.515-1.15,1.15
			c0,0.635,0.515,1.15,1.15,1.15h5.828h1.15h1.15h5.758c0.635,0,1.15-0.545,1.15-1.18c0-0.058-0.009-0.2-0.017-0.2
			C37.963,34.25,37.49,33.79,36.913,33.79z"/>
		<path fill="#0E2D3B" d="M36.913,38.619h-2.779h-2.979h-1.15h-1.15h-5.828c-0.635,0-1.15,0.515-1.15,1.15
			c0,0.635,0.515,1.15,1.15,1.15h5.828h1.15h1.15h5.758c0.635,0,1.15-0.545,1.15-1.18c0-0.058-0.009-0.2-0.017-0.2
			C37.963,38.849,37.49,38.619,36.913,38.619z"/>
		<path fill="#0E2D3B" d="M36.913,43.219h-5.758h-1.15h-1.15h-5.828c-0.635,0-1.15,0.515-1.15,1.15c0,0.635,0.515,1.15,1.15,1.15
			h5.828h1.15h1.15h5.758c0.635,0,1.15-0.515,1.15-1.15C38.062,43.734,37.548,43.219,36.913,43.219z"/>
		<path fill="#0E2D3B" d="M36.913,48.048h-5.758h-1.15h-1.15h-5.828c-0.635,0-1.15,0.515-1.15,1.15c0,0.635,0.515,1.15,1.15,1.15
			h5.828h1.15h1.15h5.758c0.635,0,1.15-0.515,1.15-1.15C38.062,48.563,37.548,48.048,36.913,48.048z"/>
		<path fill="#0E2D3B" d="M30.696,53.338h-0.699c-0.192,0-0.362,0.146-0.43,0.325l-1.885,4.985
			c-0.053,0.141-0.034,0.323,0.052,0.447c0.086,0.124,0.228,0.222,0.379,0.222h0.694c0.192,0,0.362-0.117,0.43-0.296l-0.43-0.163
			l-0.43-0.208l1.829-4.852L28.4,58.633l0.455,0.192l0.002-0.007l0.377,0.156l1.891-4.964c0.054-0.141,0.034-0.326-0.051-0.45
			S30.846,53.338,30.696,53.338z M30.677,53.847l0.018,0.008v0.002l-0.152,0.401h-0.022L30.677,53.847z"/>
		<path fill="#0E2D3B" d="M33.25,55.867h-1.703c-0.121,0-0.206-0.003-0.291,0.083c-0.086,0.086-0.101,0.152-0.101,0.274v0.694
			c0,0.121,0.049,0.24,0.135,0.325c0.086,0.086,0.095,0.135,0.325,0.135v0.099h1.635c0.121,0,0.227-0.098,0.313-0.184
			c0.086-0.086,0.122-0.253,0.122-0.375v-0.694c0-0.121-0.036-0.188-0.122-0.274C33.477,55.865,33.371,55.867,33.25,55.867z"/>
	</g>
</g>
</svg>
