<?xml version="1.0" encoding="utf-8"?>
<!-- Generator: Adobe Illustrator 17.0.0, SVG Export Plug-In . SVG Version: 6.00 Build 0)  -->
<!DOCTYPE svg PUBLIC "-//W3C//DTD SVG 1.1//EN" "http://www.w3.org/Graphics/SVG/1.1/DTD/svg11.dtd">
<svg version="1.1" id="Layer_1" xmlns="http://www.w3.org/2000/svg" xmlns:xlink="http://www.w3.org/1999/xlink" x="0px" y="0px"
	 width="109.322px" height="57.203px" viewBox="0 0 109.322 57.203" enable-background="new 0 0 109.322 57.203"
	 xml:space="preserve">
<g>
	<path fill="#EB008B" d="M15.401,9.66c-0.068,0.027-0.129,0.082-0.182,0.162c0.216,0.405,0.263,0.926,0.142,1.559
		c-0.121,0.635-0.209,1.101-0.263,1.398c-0.162,0.729-0.372,1.594-0.628,2.593c-0.257,0.999-0.513,2.032-0.77,3.099
		c-0.257,1.067-0.541,2.154-0.851,3.261c-0.312,1.108-0.602,2.147-0.871,3.119c-0.108,0.513-0.284,1.08-0.527,1.702
		s-0.473,1.255-0.689,1.904l0.162,0.162c0.243-0.243,0.499-0.411,0.77-0.506c0.27-0.094,0.567-0.168,0.891-0.223
		c0.513-0.054,1.04-0.007,1.58,0.142s1.033,0.371,1.479,0.668c0.446,0.298,0.823,0.675,1.135,1.134
		c0.31,0.46,0.492,0.959,0.546,1.499c0.027,0.108-0.007,0.425-0.101,0.952c-0.095,0.527-0.196,1.006-0.303,1.438
		c-0.109,0.297-0.264,0.709-0.466,1.235s-0.384,0.979-0.547,1.357c-0.107,0.162-0.284,0.466-0.526,0.912
		c-0.243,0.446-0.521,0.912-0.831,1.398c-0.311,0.486-0.602,0.912-0.87,1.276c-0.27,0.365-0.46,0.56-0.568,0.588
		c-0.135,0-0.182-0.035-0.142-0.101c0.04-0.068-0.021-0.101-0.182-0.101c-0.109,0.026-0.264,0.148-0.466,0.365
		c-0.202,0.215-0.398,0.35-0.587,0.405l0.081-0.04v-0.122c-0.135-0.027-0.27-0.074-0.405-0.142c-0.136-0.068-0.27-0.087-0.405-0.06
		c-0.163,0.026-0.218,0.054-0.163,0.081c0.054,0.026,0.014,0.054-0.121,0.081c-0.135,0-0.25-0.047-0.344-0.142
		c-0.096-0.095-0.183-0.182-0.264-0.263c-0.027-0.027-0.122-0.129-0.284-0.304s-0.318-0.371-0.466-0.588
		c-0.148-0.215-0.284-0.452-0.405-0.709c-0.121-0.256-0.182-0.438-0.182-0.546c-0.027-0.162,0.026-0.419,0.162-0.77
		c0.135-0.351,0.244-0.567,0.325-0.649c0.188,0.109,0.303,0.23,0.345,0.365c0.04,0.135,0.081,0.257,0.121,0.364
		c0.04,0.108,0.087,0.182,0.142,0.223c0.054,0.041,0.162,0.061,0.324,0.061c0.135-0.026,0.304-0.168,0.506-0.425
		c0.203-0.256,0.412-0.553,0.628-0.891c0.216-0.338,0.419-0.689,0.608-1.053c0.188-0.365,0.324-0.654,0.405-0.871
		c0.269-0.54,0.513-1.174,0.729-1.904s0.419-1.35,0.608-1.863l-0.082-0.527c-0.136,0-0.243,0.108-0.324,0.324
		c-0.081,0.217-0.217,0.378-0.405,0.486c-0.378,0.217-0.662,0.439-0.851,0.668c-0.19,0.23-0.324,0.48-0.405,0.749
		c-0.081,0.027-0.135,0.027-0.162,0c-0.027-0.026-0.081-0.04-0.162-0.04c0.053,0.162,0.006,0.372-0.142,0.628
		c-0.149,0.257-0.331,0.533-0.547,0.831c-0.217,0.298-0.425,0.587-0.628,0.87c-0.203,0.284-0.345,0.534-0.425,0.75
		c0.135,0.162,0.256,0.148,0.364-0.04c-0.162,0.135-0.345,0.317-0.547,0.546c-0.202,0.23-0.371,0.359-0.506,0.385
		c-0.162,0.027-0.399,0.021-0.709-0.021c-0.311-0.04-0.534-0.046-0.668-0.02c-0.136,0-0.311-0.135-0.527-0.405
		c-0.216-0.27-0.425-0.58-0.628-0.931c-0.203-0.351-0.439-0.81-0.709-1.377c-0.027-0.189,0.013-0.54,0.122-1.053
		c0.107-0.513,0.236-1.039,0.384-1.58c0.148-0.54,0.29-1.034,0.425-1.479c0.135-0.446,0.203-0.682,0.203-0.709
		c0.405-1.351,0.837-2.815,1.296-4.395c0.459-1.58,0.925-3.173,1.398-4.78c0.472-1.607,0.932-3.166,1.377-4.679
		c0.446-1.512,0.844-2.876,1.195-4.092c0.135-0.405,0.27-0.877,0.405-1.418c0.134-0.54,0.324-1.026,0.567-1.459
		c0.162-0.081,0.345-0.128,0.547-0.142c0.202-0.013,0.371-0.02,0.506-0.02c0.081-0.026,0.195,0.034,0.345,0.182
		c0.148,0.149,0.303,0.311,0.465,0.486c0.163,0.176,0.365,0.425,0.608,0.749C15.488,9.539,15.469,9.634,15.401,9.66z"/>
	<path fill="#EB008B" d="M30.045,36.154c-0.135,0.162-0.242,0.33-0.323,0.506c-0.082,0.176-0.218,0.291-0.405,0.345
		c0,0.027,0.013,0.081,0.04,0.162c0.216-0.081,0.418-0.162,0.607-0.242c-0.297,0.081-0.338,0.216-0.121,0.405
		c-0.217,0.108-0.399,0.324-0.547,0.648c-0.149,0.325-0.075,0.5,0.223,0.527c-0.162,0.082-0.284,0.223-0.365,0.426
		c-0.081,0.202-0.149,0.344-0.202,0.425c-0.217,0.162-0.48,0.324-0.79,0.485c-0.311,0.162-0.574,0.339-0.79,0.527
		c-0.135,0.108-0.284,0.25-0.445,0.426c-0.162,0.175-0.351,0.289-0.567,0.344c-0.19,0.082-0.405,0.156-0.648,0.223
		c-0.244,0.067-0.473,0.128-0.689,0.182l-0.243-0.243c-0.243,0.189-0.42,0.263-0.527,0.223c-0.109-0.04-0.23-0.06-0.364-0.06
		c-0.162,0-0.223,0.026-0.183,0.081c0.041,0.054-0.007,0.081-0.142,0.081c-0.081,0-0.311-0.081-0.689-0.243
		c-0.377-0.162-0.661-0.27-0.851-0.324c-0.648-0.243-1.215-0.635-1.701-1.174c-0.486-0.54-0.892-1.148-1.215-1.823
		c-0.325-0.675-0.547-1.337-0.669-1.985c-0.121-0.648-0.181-1.228-0.181-1.741c0-1.675,0.181-3.241,0.546-4.699
		c0.364-1.458,0.736-2.93,1.113-4.415c0.027-0.189,0.102-0.358,0.223-0.507c0.121-0.148,0.195-0.29,0.223-0.425
		c0.082-0.459,0.189-0.999,0.324-1.62c0.135-0.621,0.284-1.216,0.446-1.783s0.398-1.289,0.71-2.167
		c0.31-0.878,0.64-1.816,0.992-2.815c0.081-0.189,0.202-0.378,0.364-0.567c0.162-0.189,0.27-0.391,0.324-0.608
		c0.243-0.756,0.499-1.323,0.77-1.701c0.27-0.378,0.391-0.81,0.365-1.296c0.053,0,0.127-0.013,0.223-0.04
		c0.094-0.026,0.195-0.04,0.303-0.04c0.135,0,0.284,0.068,0.446,0.202c0.162,0.136,0.337,0.217,0.527,0.243
		c0.054,0,0.081-0.013,0.081-0.04c0.026,0,0.068,0,0.122,0c0.054,0,0.121,0,0.203,0c0.081,0.19,0.181,0.412,0.303,0.668
		c0.122,0.257,0.209,0.48,0.264,0.668c0.081,0.136,0.107,0.318,0.081,0.547c-0.027,0.23,0,0.412,0.081,0.546l-3.969,12.883
		c-0.19,0.459-0.365,0.931-0.527,1.418c-0.162,0.486-0.284,0.959-0.364,1.418c-0.081,0.325-0.169,0.757-0.264,1.296
		c-0.094,0.541-0.196,1.088-0.303,1.641c-0.109,0.554-0.19,1.094-0.243,1.62c-0.054,0.527-0.082,0.939-0.082,1.235
		c0,0.108,0.007,0.359,0.021,0.749c0.014,0.392,0.034,0.71,0.061,0.952c0.026,0.109,0.087,0.223,0.182,0.345
		c0.094,0.122,0.183,0.223,0.264,0.304c0.35,0.217,0.674,0.324,0.972,0.324c0.162,0,0.27-0.034,0.324-0.101
		c0.054-0.067,0.122-0.101,0.203-0.101c0.135,0,0.236,0.021,0.304,0.061c0.067,0.04,0.182,0.061,0.344,0.061
		c0.082,0,0.216-0.04,0.405-0.122c0.189-0.081,0.527-0.202,1.013-0.364c0.108-0.081,0.209-0.162,0.304-0.243
		c0.094-0.081,0.182-0.121,0.263-0.121c0.162,0,0.229,0.02,0.203,0.06c-0.027,0.04,0.026,0.061,0.162,0.061
		c0.107,0,0.33-0.135,0.668-0.405c0.338-0.27,0.736-0.527,1.195-0.77c-0.081,0.054-0.081,0.135,0,0.243
		c0.026-0.054,0.041-0.101,0.041-0.142c0-0.041,0.054-0.061,0.162-0.061c0.135,0,0.358-0.068,0.668-0.203
		C29.607,36.383,29.856,36.262,30.045,36.154z"/>
	<path fill="#EB008B" d="M36.607,33.358c-0.135,0.108-0.203,0.278-0.203,0.507s0.007,0.472,0.021,0.729
		c0.013,0.257-0.015,0.507-0.082,0.75c-0.068,0.243-0.209,0.459-0.425,0.648c0.054,0.027,0.121,0.04,0.202,0.04
		c0.082,0,0.148,0.04,0.203,0.122c-0.026,0.108-0.095,0.216-0.203,0.324c-0.107,0.108-0.202,0.189-0.284,0.243
		c-0.107,0.162-0.148,0.391-0.121,0.688c-0.324,0.19-0.696,0.473-1.113,0.851c-0.42,0.378-0.75,0.715-0.992,1.012
		c0,0.054,0,0.142,0,0.264c0,0.121-0.082,0.223-0.244,0.303c-0.242,0.136-0.541,0.257-0.891,0.365
		c-0.351,0.107-0.594,0.162-0.729,0.162c-0.702,0.054-1.303-0.095-1.802-0.445c-0.5-0.351-0.932-0.783-1.296-1.296
		c-0.364-0.513-0.641-1.074-0.831-1.681c-0.189-0.607-0.297-1.127-0.323-1.559c-0.028-0.243-0.015-0.654,0.04-1.235
		c0.054-0.581,0.135-1.066,0.244-1.459c0.107-0.391,0.202-0.743,0.284-1.053c0.081-0.31,0.134-0.519,0.162-0.628
		c0.377-1.727,0.823-3.146,1.337-4.254c0-0.107,0.013-0.297,0.04-0.567c0.082-0.054,0.148-0.155,0.203-0.303
		c0.054-0.148,0.148-0.29,0.284-0.425c0.162,0,0.317-0.027,0.466-0.082c0.148-0.054,0.304-0.094,0.466-0.121
		c0.513-0.026,1.059,0.189,1.64,0.648c0.58,0.46,0.898,0.946,0.953,1.459c0,0.108-0.028,0.223-0.082,0.344
		c-0.054,0.122-0.095,0.264-0.121,0.426c-0.136,0.485-0.27,1.208-0.405,2.167c-0.135,0.959-0.338,1.668-0.608,2.127
		c-0.081,0.189-0.148,0.432-0.202,0.729c-0.054,0.298-0.108,0.541-0.162,0.729c-0.242,0.837-0.432,1.452-0.567,1.844
		c-0.135,0.391-0.135,0.83,0,1.316c0.945-0.432,1.87-0.986,2.775-1.661C35.142,34.709,35.932,34.034,36.607,33.358z M35.149,18.856
		c-0.162,0.243-0.217,0.513-0.162,0.81c0.054,0.298,0.095,0.574,0.122,0.83c0.026,0.257-0.014,0.473-0.122,0.649
		c-0.108,0.176-0.405,0.277-0.891,0.303c-0.298,0.027-0.588-0.026-0.871-0.162c-0.284-0.135-0.533-0.256-0.749-0.365
		c-0.027-0.054-0.04-0.101-0.04-0.142c0-0.04-0.027-0.087-0.081-0.142c-0.298-0.162-0.541-0.452-0.729-0.87
		c-0.19-0.419-0.339-0.804-0.446-1.155c-0.081-0.162-0.115-0.385-0.101-0.668c0.013-0.284-0.035-0.52-0.143-0.709
		c0.459,0.027,0.823,0.027,1.094,0c0.27-0.027,0.513-0.068,0.729-0.122c0.216-0.054,0.405-0.115,0.567-0.182
		c0.162-0.067,0.378-0.115,0.649-0.142c0.134,0.19,0.284,0.345,0.445,0.466c0.162,0.122,0.27,0.251,0.325,0.385
		c0.107,0.109,0.142,0.284,0.101,0.527C34.805,18.41,34.906,18.64,35.149,18.856z"/>
	<path fill="#EB008B" d="M46.897,24.123c0,0.135-0.014,0.237-0.04,0.303c-0.027,0.068-0.068,0.129-0.122,0.182
		c0.054,0.405,0.061,0.912,0.021,1.52c-0.04,0.607-0.156,1.1-0.345,1.479c-0.081,0.081-0.209,0.148-0.385,0.202
		c-0.176,0.054-0.331,0.082-0.466,0.082c-0.108,0-0.291-0.061-0.546-0.183c-0.257-0.121-0.48-0.276-0.669-0.466
		c-0.189,0.082-0.297,0.203-0.323,0.365c-0.19,1.512-0.264,3.052-0.223,4.618c0.04,1.567-0.075,3.12-0.345,4.658
		c-0.054,0.379-0.129,0.865-0.223,1.459c-0.095,0.594-0.25,1.182-0.466,1.762c-0.217,0.58-0.521,1.073-0.912,1.479
		c-0.392,0.405-0.871,0.607-1.439,0.607c-0.162,0-0.249-0.02-0.263-0.06c-0.014-0.041-0.06-0.075-0.142-0.101
		c-0.054-0.054-0.081-0.061-0.081-0.021c0,0.04-0.082,0.061-0.243,0.061c-0.19,0-0.379-0.068-0.567-0.203
		c-0.19-0.135-0.379-0.263-0.567-0.385c-0.19-0.121-0.345-0.243-0.466-0.364c-0.121-0.122-0.209-0.182-0.263-0.182
		c-0.324-0.19-0.668-0.507-1.033-0.952c-0.364-0.446-0.703-0.939-1.013-1.479c-0.311-0.54-0.568-1.094-0.77-1.661
		c-0.203-0.567-0.304-1.053-0.304-1.458c0-0.243,0.081-0.628,0.243-1.155c0.162-0.527,0.365-0.965,0.607-1.317
		c0.135,0,0.244-0.026,0.325-0.081c0.026,0.109,0.013,0.237-0.041,0.385c-0.054,0.149-0.094,0.291-0.121,0.425
		c0.054,0.082,0.108,0.129,0.162,0.142c0.054,0.014,0.121,0.061,0.203,0.142c0.081,0,0.107,0.061,0.081,0.182
		c-0.027,0.122-0.041,0.278-0.041,0.466c0.108,0.108,0.183,0.169,0.223,0.182c0.04,0.014-0.034,0.115-0.223,0.304
		c0.162,0.298,0.216,0.54,0.162,0.729c0.082,0.162,0.195,0.331,0.345,0.507c0.148,0.176,0.169,0.371,0.061,0.587l0.162,0.162
		c0.134-0.162,0.284-0.243,0.445-0.243c0.216,0.378,0.377,0.797,0.486,1.256c0.107,0.459,0.364,0.824,0.77,1.094
		c0.242-0.216,0.445-0.486,0.607-0.81s0.297-0.635,0.405-0.932c0.244-0.567,0.419-1.235,0.527-2.005
		c0.107-0.77,0.188-1.545,0.242-2.329c0.054-0.783,0.068-1.526,0.041-2.228c-0.028-0.702-0.041-1.282-0.041-1.742
		c0-0.297,0.048-0.628,0.142-0.992c0.095-0.364,0.142-0.709,0.142-1.033c0-0.108-0.02-0.216-0.06-0.325
		c-0.04-0.107-0.061-0.216-0.061-0.324c0-0.27,0.027-0.54,0.082-0.81c0.053-0.27,0.107-0.621,0.162-1.053
		c0-0.107,0.007-0.385,0.02-0.83c0.013-0.446,0.068-0.912,0.162-1.398s0.216-0.918,0.365-1.296c0.148-0.378,0.345-0.567,0.587-0.567
		c0.162,0,0.256,0.014,0.284,0.04c0.026,0.027,0.081,0.068,0.162,0.121c0.649-0.081,1.357,0.115,2.127,0.588
		c0.769,0.473,1.357,0.912,1.762,1.317c0.026,0.081,0.04,0.156,0.04,0.223c0,0.068,0,0.142,0,0.223
		c0.162,0.109,0.311,0.291,0.447,0.547C46.829,23.792,46.897,23.987,46.897,24.123z M37.215,36.721h-0.162v-0.608h0.162V36.721z"/>
	<path fill="#EB008B" d="M57.348,24.123c0,0.135-0.014,0.237-0.04,0.303c-0.027,0.068-0.068,0.129-0.121,0.182
		c0.053,0.405,0.06,0.912,0.02,1.52c-0.04,0.607-0.156,1.1-0.345,1.479c-0.081,0.081-0.209,0.148-0.384,0.202
		c-0.176,0.054-0.331,0.082-0.466,0.082c-0.109,0-0.29-0.061-0.547-0.183c-0.257-0.121-0.48-0.276-0.668-0.466
		c-0.19,0.082-0.298,0.203-0.325,0.365c-0.19,1.512-0.263,3.052-0.223,4.618c0.04,1.567-0.074,3.12-0.345,4.658
		c-0.054,0.379-0.129,0.865-0.223,1.459c-0.096,0.594-0.251,1.182-0.466,1.762c-0.216,0.58-0.519,1.073-0.912,1.479
		c-0.391,0.405-0.87,0.607-1.437,0.607c-0.162,0-0.251-0.02-0.264-0.06c-0.013-0.041-0.061-0.075-0.142-0.101
		c-0.054-0.054-0.081-0.061-0.081-0.021c0,0.04-0.081,0.061-0.243,0.061c-0.189,0-0.378-0.068-0.567-0.203
		c-0.19-0.135-0.378-0.263-0.568-0.385c-0.189-0.121-0.344-0.243-0.465-0.364c-0.122-0.122-0.209-0.182-0.264-0.182
		c-0.324-0.19-0.668-0.507-1.034-0.952c-0.364-0.446-0.702-0.939-1.012-1.479c-0.312-0.54-0.567-1.094-0.77-1.661
		c-0.203-0.567-0.303-1.053-0.303-1.458c0-0.243,0.081-0.628,0.242-1.155c0.162-0.527,0.364-0.965,0.608-1.317
		c0.134,0,0.242-0.026,0.323-0.081c0.027,0.109,0.014,0.237-0.04,0.385c-0.054,0.149-0.096,0.291-0.122,0.425
		c0.054,0.082,0.107,0.129,0.162,0.142c0.054,0.014,0.122,0.061,0.203,0.142c0.082,0,0.108,0.061,0.082,0.182
		c-0.027,0.122-0.04,0.278-0.04,0.466c0.107,0.108,0.182,0.169,0.223,0.182c0.04,0.014-0.035,0.115-0.223,0.304
		c0.162,0.298,0.216,0.54,0.162,0.729c0.081,0.162,0.196,0.331,0.345,0.507c0.148,0.176,0.168,0.371,0.061,0.587l0.162,0.162
		c0.135-0.162,0.284-0.243,0.446-0.243c0.216,0.378,0.378,0.797,0.486,1.256c0.108,0.459,0.364,0.824,0.769,1.094
		c0.244-0.216,0.447-0.486,0.608-0.81s0.297-0.635,0.405-0.932c0.242-0.567,0.418-1.235,0.526-2.005
		c0.108-0.77,0.19-1.545,0.244-2.329c0.053-0.783,0.067-1.526,0.04-2.228c-0.026-0.702-0.04-1.282-0.04-1.742
		c0-0.297,0.046-0.628,0.142-0.992c0.094-0.364,0.142-0.709,0.142-1.033c0-0.108-0.021-0.216-0.061-0.325
		c-0.041-0.107-0.061-0.216-0.061-0.324c0-0.27,0.026-0.54,0.081-0.81c0.054-0.27,0.108-0.621,0.162-1.053
		c0-0.107,0.006-0.385,0.021-0.83c0.013-0.446,0.067-0.912,0.162-1.398c0.094-0.486,0.216-0.918,0.364-1.296
		c0.148-0.378,0.345-0.567,0.588-0.567c0.162,0,0.256,0.014,0.284,0.04c0.026,0.027,0.081,0.068,0.162,0.121
		c0.648-0.081,1.357,0.115,2.126,0.588c0.77,0.473,1.357,0.912,1.762,1.317c0.026,0.081,0.041,0.156,0.041,0.223
		c0,0.068,0,0.142,0,0.223c0.162,0.109,0.31,0.291,0.445,0.547C57.281,23.792,57.348,23.987,57.348,24.123z M47.666,36.721h-0.162
		v-0.608h0.162V36.721z"/>
	<path fill="#EB008B" d="M81.775,27.808c-0.189,0-0.384,0.055-0.587,0.165c-0.203,0.11-0.453,0.26-0.75,0.452l-0.203,0.247
		c0.082,0.054,0.156,0.11,0.223,0.164c0.067,0.055,0.101,0.138,0.101,0.247c-0.19,0.055-0.392,0.13-0.608,0.226
		s-0.419,0.157-0.607,0.185c-0.028,0.191-0.115,0.315-0.264,0.369s-0.311,0.089-0.486,0.102c-0.176,0.014-0.378,0.021-0.608,0.021
		c-0.229,0-0.411,0.014-0.546,0.041c-0.324,0.082-0.716,0.225-1.174,0.43c-0.46,0.205-0.757,0.307-0.892,0.307
		c-0.162,0-0.223-0.02-0.181-0.06c0.04-0.04-0.007-0.061-0.143-0.061c-0.081,0-0.23,0.04-0.446,0.121
		c-0.216,0.082-0.48,0.162-0.79,0.243c-0.311,0.082-0.621,0.183-0.931,0.304c-0.312,0.121-0.602,0.209-0.871,0.263
		c-1.108,0.325-2.282,0.615-3.525,0.871c-1.242,0.257-2.445,0.547-3.605,0.871c-0.081,0.081-0.169,0.19-0.264,0.324
		c-0.094,0.136-0.142,0.23-0.142,0.284c-0.189,0.703-0.391,1.519-0.607,2.451c-0.218,0.931-0.412,1.891-0.588,2.876
		c-0.176,0.986-0.344,1.957-0.506,2.917c-0.162,0.958-0.311,1.843-0.445,2.653c-0.028,0-0.096-0.135-0.203-0.405
		c-0.109,0.162-0.203,0.405-0.284,0.729c-0.028,0.298-0.068,0.675-0.122,1.135c-0.054,0.458-0.081,0.756-0.081,0.891v2.674
		c0.216,0.108,0.358,0.243,0.425,0.405c0.068,0.162,0.101,0.337,0.101,0.527c0,0.188-0.014,0.371-0.04,0.546
		c-0.028,0.176-0.028,0.358,0,0.547l0.203-0.203c-0.054,0.27-0.035,0.405,0.06,0.405s0.143,0.041,0.143,0.122
		c0,0.162-0.048,0.35-0.143,0.567c-0.095,0.216-0.182,0.419-0.263,0.607h-0.122c-0.026,0-0.081-0.04-0.162-0.121
		c-0.054,0-0.096,0.033-0.122,0.101c-0.027,0.067-0.04,0.142-0.04,0.223c-0.298-0.19-0.614-0.426-0.952-0.709
		c-0.338-0.284-0.615-0.574-0.831-0.872c-0.054-0.27-0.108-0.588-0.162-0.953c-0.054-0.365-0.096-0.716-0.122-1.053
		c-0.026-0.339-0.054-0.649-0.081-0.933c-0.027-0.284-0.04-0.452-0.04-0.506l0.729-7.944c0-0.081,0.054-0.364,0.162-0.851
		c0.108-0.486,0.236-1.061,0.385-1.723c0.148-0.662,0.298-1.357,0.446-2.087c0.148-0.729,0.249-1.364,0.303-1.905
		c-0.216-0.082-0.419-0.027-0.607,0.162c-0.054-0.107-0.156-0.189-0.304-0.243c-0.148-0.054-0.303-0.081-0.465-0.081
		c-0.136,0-0.176,0.021-0.122,0.061c0.054,0.04,0.081,0.088,0.081,0.142c-0.135-0.135-0.284-0.203-0.445-0.203
		c-0.136,0-0.257-0.026-0.365-0.081c-0.108-0.054-0.217-0.122-0.324-0.204c-0.109-0.081-0.237-0.189-0.385-0.324
		c-0.149-0.135-0.263-0.243-0.345-0.324c-0.027-0.026-0.095-0.155-0.202-0.385c-0.109-0.23-0.218-0.487-0.325-0.771
		c-0.108-0.284-0.203-0.574-0.284-0.871s-0.122-0.499-0.122-0.608c0-0.081,0.074-0.135,0.223-0.162
		c0.148-0.026,0.155-0.189,0.021-0.486c0.269,0.19,0.479,0.298,0.628,0.324c0.148,0.027,0.269,0.035,0.364,0.021
		c0.094-0.013,0.203-0.04,0.324-0.081s0.304-0.061,0.546-0.061c0.135,0,0.183-0.034,0.142-0.101
		c-0.04-0.067-0.007-0.101,0.102-0.101c0.188,0,0.405,0.007,0.648,0.021c0.243,0.014,0.527-0.034,0.851-0.142
		c0.297-0.135,0.756-0.203,1.378-0.203c0.215-1.025,0.431-2.091,0.648-3.198c0.216-1.106,0.445-2.132,0.689-3.077
		c0.162-0.566,0.31-1.167,0.445-1.802c0.135-0.634,0.297-1.221,0.486-1.761c0.27-0.837,0.56-1.741,0.87-2.712
		c0.311-0.972,0.635-1.936,0.973-2.895s0.709-1.903,1.114-2.834c0.405-0.931,0.851-1.788,1.337-2.571
		c0.054-0.107,0.162-0.255,0.324-0.445c0.162-0.188,0.337-0.384,0.527-0.587c0.189-0.202,0.364-0.371,0.527-0.506
		c0.162-0.135,0.297-0.203,0.405-0.203c0.135,0,0.244,0.027,0.325,0.082c0.081,0.054,0.175,0.121,0.284,0.202
		c0.135,0.082,0.303,0.122,0.506,0.122c0.203,0,0.399,0.014,0.588,0.04c0.189,0.081,0.385,0.176,0.588,0.284
		c0.203,0.108,0.358,0.203,0.466,0.284c0.27,0.217,0.56,0.466,0.871,0.749c0.31,0.284,0.56,0.534,0.749,0.75
		c0.134,0.298,0.304,0.648,0.507,1.053c0.202,0.405,0.303,0.675,0.303,0.81c0,0.162-0.087,0.506-0.264,1.033
		c-0.176,0.527-0.317,0.966-0.425,1.317c-0.189,0-0.371,0.095-0.546,0.284c-0.176,0.189-0.345,0.391-0.507,0.607
		c-0.081,0-0.155-0.034-0.223-0.101c-0.068-0.067-0.115-0.101-0.142-0.101l-0.324,0.203c-0.082-0.081-0.162-0.122-0.243-0.122
		c-0.081,0-0.148,0-0.203,0l0.203-0.202c-0.135-0.082-0.277-0.156-0.425-0.223c-0.148-0.067-0.264-0.142-0.345-0.223
		c-0.108-0.189-0.209-0.419-0.303-0.689c-0.096-0.27-0.142-0.472-0.142-0.607c0-0.162,0.033-0.27,0.101-0.324
		c0.068-0.054,0.129-0.108,0.183-0.162c0.081,0.054,0.121,0.101,0.121,0.142s0.04,0.101,0.121,0.183
		c0.162-0.298,0.244-0.635,0.244-1.013c0-0.108-0.007-0.216-0.021-0.325c-0.013-0.107-0.087-0.162-0.223-0.162
		c-0.189,0-0.391,0.196-0.607,0.588c-0.217,0.391-0.425,0.824-0.627,1.296c-0.203,0.473-0.399,0.945-0.588,1.418
		c-0.189,0.472-0.297,0.776-0.323,0.91c-0.136,0.377-0.412,1.037-0.831,1.98c-0.419,0.942-0.763,1.831-1.034,2.665
		c-0.19,0.647-0.412,1.428-0.668,2.343c-0.257,0.916-0.466,1.791-0.628,2.625c-0.109,0.404-0.231,0.841-0.365,1.313
		c-0.135,0.471-0.298,0.962-0.485,1.474c-0.054,0.054-0.109,0.081-0.163,0.081c-0.054,0-0.121,0.04-0.202,0.122
		c0,0.134,0.054,0.255,0.162,0.363c0.026,0.082,0.006,0.176-0.061,0.284c-0.068,0.109-0.142,0.217-0.223,0.325V28.7
		c0.405,0.135,0.891,0.148,1.458,0.04s1.066-0.189,1.499-0.243c0.513-0.081,1.059-0.122,1.64-0.122c0.58,0,1.155-0.04,1.722-0.121
		c0.243,0,0.432-0.067,0.568-0.203c0.593,0.027,1.302,0.021,2.126-0.02c0.823-0.04,1.601-0.061,2.329-0.061
		c0.054-0.026,0.122-0.04,0.203-0.04c0.081,0,0.135-0.04,0.162-0.122c0.297,0.082,0.621,0.101,0.973,0.061
		c0.351-0.04,0.689-0.074,1.013-0.101l0.04-0.04c0.081-0.081,0.162-0.121,0.243-0.121c0.134,0,0.155,0.034,0.06,0.101
		c-0.094,0.068-0.06,0.101,0.102,0.101c0.107,0,0.29-0.033,0.546-0.101c0.256-0.067,0.452-0.101,0.588-0.101
		c0.135,0,0.223,0.034,0.264,0.101C81.634,27.775,81.695,27.808,81.775,27.808z M61.359,46.889V46.24h-0.203v0.649H61.359z
		 M62.087,47.132h-0.162v-0.689h0.162V47.132z M81.33,27.934v-0.166h-0.405v0.166H81.33z"/>
	<path fill="#EB008B" d="M91.619,35.06c-0.135,0.081-0.351,0.27-0.648,0.567c0.081,0.108,0.148,0.216,0.203,0.324
		c0.053,0.108,0.134,0.217,0.242,0.324c-0.19,0.27-0.391,0.594-0.607,0.973c-0.082,0.135-0.082,0.23,0,0.284
		c-0.108,0.162-0.311,0.378-0.607,0.648c0.081,0.082,0.155,0.115,0.223,0.101c0.068-0.013,0.142-0.061,0.223-0.142
		c0,0.081-0.02,0.156-0.061,0.223c-0.04,0.068-0.128,0.101-0.263,0.101c-0.162,0-0.217-0.02-0.162-0.06
		c0.054-0.041,0.054-0.087,0-0.142c-0.054,0.054-0.087,0.128-0.101,0.223c-0.014,0.095-0.061,0.182-0.142,0.263
		c-0.054,0.082-0.135,0.183-0.243,0.304c-0.108,0.121-0.257,0.237-0.446,0.345c-0.216,0.189-0.527,0.391-0.931,0.607
		c-0.405,0.217-0.676,0.324-0.811,0.324c-0.486,0-0.986-0.074-1.498-0.223c-0.513-0.148-0.986-0.304-1.418-0.466
		c-0.081-0.054-0.209-0.162-0.386-0.324c-0.176-0.162-0.303-0.311-0.384-0.446c-0.243-0.486-0.466-0.986-0.669-1.499
		c-0.202-0.513-0.398-0.986-0.587-1.418c-0.081-0.135-0.109-0.324-0.081-0.567c0.026-0.243,0.04-0.432,0.04-0.567
		c0-0.216-0.054-0.432-0.162-0.649c-0.729,0.892-1.485,1.802-2.268,2.735c-0.784,0.931-1.472,1.952-2.066,3.059
		c-0.082,0.054-0.189,0.129-0.324,0.223c-0.135,0.095-0.298,0.182-0.486,0.264l-0.081,0.04c0,0.026,0.04,0.067,0.121,0.121
		c-0.189,0-0.398-0.02-0.627-0.06c-0.231-0.041-0.453-0.061-0.669-0.061c-0.081-0.19-0.229-0.351-0.445-0.486
		c-0.217-0.134-0.42-0.297-0.608-0.486c-0.108-0.107-0.237-0.256-0.384-0.445c-0.149-0.189-0.237-0.365-0.264-0.527
		c-0.081-0.189-0.148-0.439-0.203-0.75c-0.054-0.31-0.081-0.546-0.081-0.709c0-0.945,0.094-1.762,0.284-2.451
		c0.188-0.688,0.364-1.492,0.527-2.41c0.189-0.189,0.337-0.405,0.446-0.649c0.107-0.242,0.188-0.485,0.242-0.729
		c0-0.108-0.02-0.229-0.061-0.365c-0.04-0.134-0.047-0.256-0.02-0.364c0.081-0.189,0.183-0.35,0.304-0.486
		c0.121-0.134,0.223-0.229,0.304-0.284c0.107-0.107,0.168-0.263,0.181-0.466c0.013-0.203,0.048-0.398,0.102-0.588
		c0.026-0.081,0.081-0.134,0.162-0.162c0.081-0.027,0.148-0.082,0.203-0.162c0-0.081-0.014-0.135-0.041-0.162
		c-0.026-0.026-0.026-0.081,0-0.162c0.216-0.378,0.426-0.804,0.628-1.277c0.203-0.471,0.412-0.904,0.628-1.296
		c0.216-0.391,0.48-0.736,0.79-1.034c0.31-0.297,0.709-0.445,1.195-0.445c0.134,0,0.263,0.034,0.385,0.101
		c0.121,0.068,0.264,0.075,0.425,0.021c0.026,0.162,0.115,0.331,0.264,0.506c0.148,0.176,0.276,0.345,0.384,0.507
		c0,0.081,0.021,0.169,0.061,0.263c0.04,0.095,0.061,0.209,0.061,0.345c0,0.513-0.203,1.161-0.608,1.944
		c-0.405,0.784-0.757,1.526-1.053,2.229c-0.162,0.351-0.345,0.736-0.546,1.155c-0.203,0.419-0.385,0.817-0.546,1.195
		c-0.162,0.405-0.359,0.83-0.588,1.276c-0.229,0.445-0.452,0.926-0.668,1.438c0,0.054,0,0.121,0,0.202
		c0,0.082,0.026,0.176,0.081,0.284c-0.162,0.242-0.277,0.506-0.345,0.79s-0.155,0.574-0.264,0.871v0.284h0.082
		c1.35-1.54,2.627-3.004,3.828-4.395c1.202-1.39,2.221-2.897,3.059-4.517c0.134-0.27,0.31-0.593,0.527-0.972
		c0.216-0.378,0.432-0.715,0.648-1.013c0.081,0.081,0.183,0.148,0.304,0.203s0.237,0.135,0.344,0.243
		c0.082,0,0.109-0.041,0.082-0.122c-0.027-0.081-0.04-0.148-0.04-0.203c0.081,0.054,0.142,0.122,0.182,0.203
		c0.04,0.081,0.128,0.122,0.263,0.122c0.108,0,0.135-0.021,0.082-0.061c-0.054-0.04-0.027-0.061,0.081-0.061
		c0.054,0,0.169,0.101,0.345,0.304s0.452,0.358,0.83,0.466c0.135,0.19,0.264,0.452,0.386,0.79c0.121,0.338,0.181,0.587,0.181,0.749
		c0,0.081-0.107,0.317-0.323,0.709c-0.217,0.391-0.379,0.736-0.486,1.033c-0.19,0.433-0.364,0.912-0.527,1.438
		c-0.162,0.527-0.297,1.048-0.405,1.56l-0.04,0.081c-0.081,0.054-0.122,0.108-0.122,0.162c-0.081,0.432-0.155,0.918-0.223,1.458
		c-0.068,0.541-0.101,0.891-0.101,1.053c0,0.19,0.094,0.311,0.284,0.364c0.081,0.054,0.175,0.082,0.284,0.082
		c0.134,0,0.506-0.074,1.113-0.223c0.607-0.148,1.087-0.276,1.438-0.385c0.405-0.107,0.81-0.289,1.215-0.546
		c0.405-0.256,0.796-0.493,1.175-0.709L91.619,35.06z"/>
	<path fill="#EB008B" d="M102.03,36.154c-0.136,0.162-0.244,0.33-0.325,0.506c-0.081,0.176-0.216,0.291-0.405,0.345
		c0,0.027,0.013,0.081,0.04,0.162c0.216-0.081,0.419-0.162,0.607-0.242c-0.298,0.081-0.338,0.216-0.121,0.405
		c-0.217,0.108-0.399,0.324-0.547,0.648c-0.148,0.325-0.074,0.5,0.223,0.527c-0.162,0.082-0.284,0.223-0.364,0.426
		c-0.081,0.202-0.148,0.344-0.203,0.425c-0.216,0.162-0.48,0.324-0.79,0.485c-0.311,0.162-0.574,0.339-0.79,0.527
		c-0.136,0.108-0.284,0.25-0.446,0.426c-0.162,0.175-0.352,0.289-0.568,0.344c-0.189,0.082-0.405,0.156-0.648,0.223
		c-0.242,0.067-0.473,0.128-0.689,0.182l-0.242-0.243c-0.243,0.189-0.419,0.263-0.527,0.223c-0.108-0.04-0.23-0.06-0.365-0.06
		c-0.162,0-0.223,0.026-0.182,0.081c0.04,0.054-0.007,0.081-0.142,0.081c-0.081,0-0.311-0.081-0.688-0.243
		c-0.379-0.162-0.663-0.27-0.851-0.324c-0.649-0.243-1.216-0.635-1.702-1.174c-0.486-0.54-0.891-1.148-1.216-1.823
		c-0.323-0.675-0.546-1.337-0.668-1.985c-0.122-0.648-0.183-1.228-0.183-1.741c0-1.675,0.183-3.241,0.547-4.699
		c0.364-1.458,0.735-2.93,1.114-4.415c0.026-0.189,0.101-0.358,0.223-0.507c0.122-0.148,0.195-0.29,0.223-0.425
		c0.081-0.459,0.189-0.999,0.325-1.62c0.134-0.621,0.284-1.216,0.445-1.783c0.162-0.567,0.398-1.289,0.709-2.167
		c0.31-0.878,0.641-1.816,0.992-2.815c0.082-0.189,0.203-0.378,0.365-0.567c0.162-0.189,0.27-0.391,0.324-0.608
		c0.243-0.756,0.499-1.323,0.77-1.701c0.27-0.378,0.391-0.81,0.364-1.296c0.054,0,0.129-0.013,0.223-0.04
		c0.095-0.026,0.196-0.04,0.305-0.04c0.134,0,0.284,0.068,0.445,0.202c0.162,0.136,0.338,0.217,0.527,0.243
		c0.054,0,0.081-0.013,0.081-0.04c0.027,0,0.067,0,0.121,0s0.122,0,0.203,0c0.082,0.19,0.183,0.412,0.304,0.668
		c0.121,0.257,0.209,0.48,0.263,0.668c0.082,0.136,0.108,0.318,0.082,0.547c-0.027,0.23,0,0.412,0.081,0.546l-3.97,12.883
		c-0.19,0.459-0.364,0.931-0.526,1.418c-0.163,0.486-0.284,0.959-0.365,1.418c-0.082,0.325-0.169,0.757-0.263,1.296
		c-0.096,0.541-0.196,1.088-0.304,1.641c-0.108,0.554-0.19,1.094-0.243,1.62c-0.054,0.527-0.081,0.939-0.081,1.235
		c0,0.108,0.007,0.359,0.02,0.749c0.013,0.392,0.034,0.71,0.061,0.952c0.026,0.109,0.087,0.223,0.182,0.345
		c0.095,0.122,0.182,0.223,0.263,0.304c0.351,0.217,0.676,0.324,0.973,0.324c0.162,0,0.27-0.034,0.325-0.101
		c0.053-0.067,0.121-0.101,0.202-0.101c0.135,0,0.237,0.021,0.304,0.061c0.068,0.04,0.182,0.061,0.345,0.061
		c0.081,0,0.216-0.04,0.405-0.122c0.189-0.081,0.527-0.202,1.013-0.364c0.107-0.081,0.209-0.162,0.303-0.243
		c0.095-0.081,0.183-0.121,0.264-0.121c0.162,0,0.229,0.02,0.203,0.06c-0.027,0.04,0.026,0.061,0.162,0.061
		c0.108,0,0.331-0.135,0.669-0.405c0.337-0.27,0.735-0.527,1.195-0.77c-0.082,0.054-0.082,0.135,0,0.243
		c0.026-0.054,0.04-0.101,0.04-0.142c0-0.041,0.054-0.061,0.162-0.061c0.135,0,0.358-0.068,0.668-0.203
		C101.59,36.383,101.841,36.262,102.03,36.154z"/>
</g>
</svg>
